<svg xmlns="http://www.w3.org/2000/svg" xmlns:xlink="http://www.w3.org/1999/xlink" preserveAspectRatio="xMidYMid" width="11" height="15.437" viewBox="0 0 11 15.437">
  <defs>
    <style>
      .cls-1 {
        fill: #fff;
        filter: url(#color-overlay-1);
        fill-rule: evenodd;
      }
    </style>

    <filter id="color-overlay-1" filterUnits="userSpaceOnUse">
      <feFlood flood-color="#acaca8"/>
      <feComposite operator="in" in2="SourceGraphic"/>
      <feBlend in2="SourceGraphic" result="solidFill"/>
    </filter>
  </defs>
  <path d="M5.507,15.452 C5.507,15.452 0.006,8.522 0.006,5.485 C0.006,2.448 2.469,-0.014 5.507,-0.014 C8.545,-0.014 11.008,2.448 11.008,5.485 C11.008,8.522 5.507,15.452 5.507,15.452 ZM5.507,1.986 C3.574,1.986 2.006,3.553 2.006,5.485 C2.006,7.418 3.574,8.984 5.507,8.984 C7.440,8.984 9.008,7.418 9.008,5.485 C9.008,3.553 7.440,1.986 5.507,1.986 Z" class="cls-1"/>
</svg>
