<svg xmlns="http://www.w3.org/2000/svg" xmlns:xlink="http://www.w3.org/1999/xlink" preserveAspectRatio="xMidYMid" width="16" height="15" viewBox="0 0 16 15">
  <defs>
    <style>
      .cls-1 {
        fill: #f44ea6;
        fill-rule: evenodd;
      }
    </style>
  </defs>
  <path d="M15.009,15.000 L1.006,15.000 C0.454,15.000 0.006,14.552 0.006,14.001 L0.006,2.003 C0.006,1.451 0.454,1.003 1.006,1.003 L3.007,1.003 L3.007,1.503 L3.007,2.503 C3.007,3.332 3.678,4.003 4.507,4.003 C5.336,4.003 6.007,3.332 6.007,2.503 L6.007,1.503 L6.007,1.003 L10.008,1.003 L10.008,1.503 L10.008,2.503 C10.008,3.332 10.680,4.003 11.509,4.003 C12.337,4.003 13.009,3.332 13.009,2.503 L13.009,1.503 L13.009,1.003 L15.009,1.003 C15.562,1.003 16.010,1.451 16.010,2.003 L16.010,14.001 C16.010,14.552 15.562,15.000 15.009,15.000 ZM13.009,7.002 L3.007,7.002 L3.007,8.002 L13.009,8.002 L13.009,7.002 ZM13.009,10.002 L3.007,10.002 L3.007,11.001 L13.009,11.001 L13.009,10.002 ZM11.509,3.003 C11.232,3.003 11.009,2.779 11.009,2.503 L11.009,0.503 C11.009,0.227 11.232,0.004 11.509,0.004 C11.785,0.004 12.009,0.227 12.009,0.503 L12.009,2.503 C12.009,2.779 11.785,3.003 11.509,3.003 ZM4.507,3.003 C4.231,3.003 4.007,2.779 4.007,2.503 L4.007,0.503 C4.007,0.227 4.231,0.004 4.507,0.004 C4.783,0.004 5.007,0.227 5.007,0.503 L5.007,2.503 C5.007,2.779 4.783,3.003 4.507,3.003 Z" class="cls-1"/>
</svg>
