<svg xmlns="http://www.w3.org/2000/svg" xmlns:xlink="http://www.w3.org/1999/xlink" preserveAspectRatio="xMidYMid" width="20.25" height="27" viewBox="0 0 20.25 27">
  <defs>
    <style>
      .cls-1 {
        fill: #b4da31;
        fill-rule: evenodd;
      }
    </style>
  </defs>
  <path d="M20.263,5.619 C20.263,5.619 13.512,4.494 9.006,4.494 C4.503,4.494 2.251,2.242 2.251,2.242 L2.251,-0.009 L-0.000,-0.009 L-0.000,27.009 L2.251,27.009 L2.251,13.500 C2.251,13.500 4.503,15.751 9.006,15.751 C13.509,15.751 20.263,16.877 20.263,16.877 L16.886,11.248 L20.263,5.619 Z" class="cls-1"/>
</svg>
